02-Digital-Design/Logic Design/Lab1_BCD_Counter/simulation/qsim/BCD_COUNTER.msim.vcd
$comment
	File created using the following command:
		vcd file BCD_COUNTER.msim.vcd -direction
$end
$date
	Wed Nov 12 19:59:41 2025
$end
$version
	ModelSim Version 10.5b
$end
$timescale
	1ps
$end

$scope module TOW_DIGITS_BCD_COUNTER_vlg_vec_tst $end
$var reg 1 ! CLK_ONES $end
$var reg 1 " CLK_TENS $end
$var reg 1 # PRN $end
$var reg 1 $ RESET $end
$var wire 1 % ONES_Q0 $end
$var wire 1 & ONES_Q1 $end
$var wire 1 ' ONES_Q2 $end
$var wire 1 ( ONES_Q3 $end
$var wire 1 ) TENS_Q0 $end
$var wire 1 * TENS_Q1 $end
$var wire 1 + TENS_Q2 $end
$var wire 1 , TENS_Q3 $end

$scope module i1 $end
$var wire 1 - gnd $end
$var wire 1 . vcc $end
$var wire 1 / unknown $end
$var tri1 1 0 devclrn $end
$var tri1 1 1 devpor $end
$var tri1 1 2 devoe $end
$var wire 1 3 ONES_Q0~output_o $end
$var wire 1 4 ONES_Q1~output_o $end
$var wire 1 5 ONES_Q2~output_o $end
$var wire 1 6 ONES_Q3~output_o $end
$var wire 1 7 TENS_Q0~output_o $end
$var wire 1 8 TENS_Q1~output_o $end
$var wire 1 9 TENS_Q2~output_o $end
$var wire 1 : TENS_Q3~output_o $end
$var wire 1 ; CLK_ONES~input_o $end
$var wire 1 < PRN~input_o $end
$var wire 1 = RESET~input_o $end
$var wire 1 > intst0|inst~1_combout $end
$var wire 1 ? intst0|inst~3_combout $end
$var wire 1 @ intst0|inst~0_combout $end
$var wire 1 A intst0|inst~_emulated_q $end
$var wire 1 B intst0|inst~2_combout $end
$var wire 1 C intst0|inst2~1_combout $end
$var wire 1 D intst0|inst2~_emulated_q $end
$var wire 1 E intst0|inst2~0_combout $end
$var wire 1 F intst0|inst11~combout $end
$var wire 1 G intst0|inst3~1_combout $end
$var wire 1 H intst0|inst3~_emulated_q $end
$var wire 1 I intst0|inst3~0_combout $end
$var wire 1 J intst0|inst1~1_combout $end
$var wire 1 K intst0|inst1~_emulated_q $end
$var wire 1 L intst0|inst1~0_combout $end
$var wire 1 M CLK_TENS~input_o $end
$var wire 1 N inst1|inst~1_combout $end
$var wire 1 O inst1|inst~_emulated_q $end
$var wire 1 P inst1|inst~0_combout $end
$var wire 1 Q inst1|inst2~1_combout $end
$var wire 1 R inst1|inst2~_emulated_q $end
$var wire 1 S inst1|inst2~0_combout $end
$var wire 1 T inst1|inst11~combout $end
$var wire 1 U inst1|inst3~1_combout $end
$var wire 1 V inst1|inst3~_emulated_q $end
$var wire 1 W inst1|inst3~0_combout $end
$var wire 1 X inst1|inst1~1_combout $end
$var wire 1 Y inst1|inst1~_emulated_q $end
$var wire 1 Z inst1|inst1~0_combout $end
$upscope $end
$upscope $end
$enddefinitions $end
#0
$dumpvars
0!
0"
1#
0$
0%
0&
0'
0(
0)
0*
0+
0,
0-
1.
x/
10
11
12
03
04
05
06
07
08
09
0:
0;
1<
0=
0>
1?
1@
0A
0B
0C
0D
0E
0F
0G
0H
0I
0J
0K
0L
0M
1N
0O
0P
0Q
0R
0S
0T
0U
0V
0W
0X
0Y
0Z
$end
#5000
1!
1;
#10000
0!
0;
#15000
1"
1!
1M
1;
#20000
1$
0!
1=
0;
0@
#25000
1!
1;
1A
1B
13
1%
1J
0?
#30000
0!
0;
#35000
1!
1;
1K
0A
0B
1L
14
03
0%
1&
1?
#40000
0!
0;
#45000
1!
1;
1A
1B
13
1%
0J
1C
0?
#50000
0!
0;
#55000
1!
1;
0K
1D
0A
0B
1E
0L
04
15
03
0%
1'
0&
1?
#60000
0!
0;
#65000
0"
1!
0M
1;
1A
1B
13
1%
1J
0?
#70000
0!
0;
#75000
1!
1;
1K
0A
0B
1L
14
03
0%
1&
1?
#80000
0!
0;
#85000
1!
1;
1A
1B
13
1F
1%
0J
0C
0?
1G
#90000
0!
0;
#95000
1!
1;
0K
1H
0D
0A
0B
0E
1I
0L
04
16
05
03
0F
0%
0'
1(
0&
1?
#100000
0!
0;
#105000
1!
1;
1A
1B
13
1%
0G
0?
#110000
0!
0;
#115000
1"
1!
1M
1;
1O
0H
0A
0B
0I
1P
17
06
03
0%
0(
1)
1X
0N
1?
#120000
0!
0;
#125000
1!
1;
1A
1B
13
1%
1J
0?
#130000
0!
0;
#135000
1!
1;
1K
0A
0B
1L
14
03
0%
1&
1?
#140000
0!
0;
#145000
1!
1;
1A
1B
13
1%
0J
1C
0?
#150000
0!
0;
#155000
1!
1;
0K
1D
0A
0B
1E
0L
04
15
03
0%
1'
0&
1?
#160000
0!
0;
#165000
0"
1!
0M
1;
1A
1B
13
1%
1J
0?
#170000
0!
0;
#175000
1!
1;
1K
0A
0B
1L
14
03
0%
1&
1?
#180000
0!
0;
#185000
1!
1;
1A
1B
13
1F
1%
0J
0C
0?
1G
#190000
0!
0;
#195000
1!
1;
0K
1H
0D
0A
0B
0E
1I
0L
04
16
05
03
0F
0%
0'
1(
0&
1?
#200000
0!
0;
#205000
1!
1;
1A
1B
13
1%
0G
0?
#210000
0!
0;
#215000
1"
1!
1M
1;
1Y
0O
0H
0A
0B
0I
0P
1Z
18
07
06
03
0%
0(
0)
1*
1N
1?
#220000
0!
0;
#225000
1!
1;
1A
1B
13
1%
1J
0?
#230000
0!
0;
#235000
1!
1;
1K
0A
0B
1L
14
03
0%
1&
1?
#240000
0!
0;
#245000
1!
1;
1A
1B
13
1%
0J
1C
0?
#250000
0!
0;
#255000
1!
1;
0K
1D
0A
0B
1E
0L
04
15
03
0%
1'
0&
1?
#260000
0!
0;
#265000
0"
1!
0M
1;
1A
1B
13
1%
1J
0?
#270000
0!
0;
#275000
1!
1;
1K
0A
0B
1L
14
03
0%
1&
1?
#280000
0!
0;
#285000
1!
1;
1A
1B
13
1F
1%
0J
0C
0?
1G
#290000
0!
0;
#295000
1!
1;
0K
1H
0D
0A
0B
0E
1I
0L
04
16
05
03
0F
0%
0'
1(
0&
1?
#300000
0!
0;
#305000
1!
1;
1A
1B
13
1%
0G
0?
#310000
0!
0;
#315000
1"
1!
1M
1;
1O
0H
0A
0B
0I
1P
17
06
03
0%
0(
1)
0X
1Q
0N
1?
#320000
0!
0;
#325000
1!
1;
1A
1B
13
1%
1J
0?
#330000
0!
0;
#335000
1!
1;
1K
0A
0B
1L
14
03
0%
1&
1?
#340000
0!
0;
#345000
1!
1;
1A
1B
13
1%
0J
1C
0?
#350000
0!
0;
#355000
1!
1;
0K
1D
0A
0B
1E
0L
04
15
03
0%
1'
0&
1?
#360000
0!
0;
#365000
0"
1!
0M
1;
1A
1B
13
1%
1J
0?
#370000
0!
0;
#375000
1!
1;
1K
0A
0B
1L
14
03
0%
1&
1?
#380000
0!
0;
#385000
1!
1;
1A
1B
13
1F
1%
0J
0C
0?
1G
#390000
0!
0;
#395000
1!
1;
0K
1H
0D
0A
0B
0E
1I
0L
04
16
05
03
0F
0%
0'
1(
0&
1?
#400000
0!
0;
#405000
1!
1;
1A
1B
13
1%
0G
0?
#410000
0!
0;
#415000
1"
1!
1M
1;
0Y
1R
0O
0H
0A
0B
0I
0P
1S
0Z
08
19
07
06
03
0%
0(
0)
1+
0*
1N
1?
#420000
0!
0;
#425000
1!
1;
1A
1B
13
1%
1J
0?
#430000
0!
0;
#435000
1!
1;
1K
0A
0B
1L
14
03
0%
1&
1?
#440000
0!
0;
#445000
1!
1;
1A
1B
13
1%
0J
1C
0?
#450000
0!
0;
#455000
1!
1;
0K
1D
0A
0B
1E
0L
04
15
03
0%
1'
0&
1?
#460000
0!
0;
#465000
0"
1!
0M
1;
1A
1B
13
1%
1J
0?
#470000
0!
0;
#475000
1!
1;
1K
0A
0B
1L
14
03
0%
1&
1?
#480000
0!
0;
#485000
1!
1;
1A
1B
13
1F
1%
0J
0C
0?
1G
#490000
0!
0;
#495000
1!
1;
0K
1H
0D
0A
0B
0E
1I
0L
04
16
05
03
0F
0%
0'
1(
0&
1?
#500000
0!
0;
#505000
1!
1;
1A
1B
13
1%
0G
0?
#510000
0!
0;
#515000
1"
1!
1M
1;
1O
0H
0A
0B
0I
1P
17
06
03
0%
0(
1)
1X
0N
1?
#520000
0!
0;
#525000
1!
1;
1A
1B
13
1%
1J
0?
#530000
0!
0;
#535000
1!
1;
1K
0A
0B
1L
14
03
0%
1&
1?
#540000
0!
0;
#545000
1!
1;
1A
1B
13
1%
0J
1C
0?
#550000
0!
0;
#555000
1!
1;
0K
1D
0A
0B
1E
0L
04
15
03
0%
1'
0&
1?
#560000
0!
0;
#565000
0"
1!
0M
1;
1A
1B
13
1%
1J
0?
#570000
0!
0;
#575000
1!
1;
1K
0A
0B
1L
14
03
0%
1&
1?
#580000
0!
0;
#585000
1!
1;
1A
1B
13
1F
1%
0J
0C
0?
1G
#590000
0!
0;
#595000
1!
1;
0K
1H
0D
0A
0B
0E
1I
0L
04
16
05
03
0F
0%
0'
1(
0&
1?
#600000
0!
0;
#605000
1!
1;
1A
1B
13
1%
0G
0?
#610000
0!
0;
#615000
1"
1!
1M
1;
1Y
0O
0H
0A
0B
0I
0P
1Z
18
07
06
03
0%
0(
0)
1*
1N
1?
#620000
0!
0;
#625000
1!
1;
1A
1B
13
1%
1J
0?
#630000
0!
0;
#635000
1!
1;
1K
0A
0B
1L
14
03
0%
1&
1?
#640000
0!
0;
#645000
1!
1;
1A
1B
13
1%
0J
1C
0?
#650000
0!
0;
#655000
1!
1;
0K
1D
0A
0B
1E
0L
04
15
03
0%
1'
0&
1?
#660000
0!
0;
#665000
0"
1!
0M
1;
1A
1B
13
1%
1J
0?
#670000
0!
0;
#675000
1!
1;
1K
0A
0B
1L
14
03
0%
1&
1?
#680000
0!
0;
#685000
1!
1;
1A
1B
13
1F
1%
0J
0C
0?
1G
#690000
0!
0;
#695000
1!
1;
0K
1H
0D
0A
0B
0E
1I
0L
04
16
05
03
0F
0%
0'
1(
0&
1?
#700000
0!
0;
#705000
1!
1;
1A
1B
13
1%
0G
0?
#710000
0!
0;
#715000
1"
1!
1M
1;
1O
0H
0A
0B
0I
1P
17
06
03
1T
0%
0(
1)
0X
0Q
0N
1?
1U
#720000
0!
0;
#725000
1!
1;
1A
1B
13
1%
1J
0?
#730000
0!
0;
#735000
1!
1;
1K
0A
0B
1L
14
03
0%
1&
1?
#740000
0!
0;
#745000
1!
1;
1A
1B
13
1%
0J
1C
0?
#750000
0!
0;
#755000
1!
1;
0K
1D
0A
0B
1E
0L
04
15
03
0%
1'
0&
1?
#760000
0!
0;
#765000
0"
1!
0M
1;
1A
1B
13
1%
1J
0?
#770000
0!
0;
#775000
1!
1;
1K
0A
0B
1L
14
03
0%
1&
1?
#780000
0!
0;
#785000
1!
1;
1A
1B
13
1F
1%
0J
0C
0?
1G
#790000
0!
0;
#795000
1!
1;
0K
1H
0D
0A
0B
0E
1I
0L
04
16
05
03
0F
0%
0'
1(
0&
1?
#800000
0!
0;
#805000
1!
1;
1A
1B
13
1%
0G
0?
#810000
0!
0;
#815000
1"
1!
1M
1;
0Y
1V
0R
0O
0H
0A
0B
0I
0P
0S
1W
0Z
08
1:
09
07
06
03
0T
0%
0(
0)
0+
1,
0*
1N
1?
#820000
0!
0;
#825000
1!
1;
1A
1B
13
1%
1J
0?
#830000
0!
0;
#835000
1!
1;
1K
0A
0B
1L
14
03
0%
1&
1?
#840000
0!
0;
#845000
1!
1;
1A
1B
13
1%
0J
1C
0?
#850000
0!
0;
#855000
1!
1;
0K
1D
0A
0B
1E
0L
04
15
03
0%
1'
0&
1?
#860000
0!
0;
#865000
0"
1!
0M
1;
1A
1B
13
1%
1J
0?
#870000
0!
0;
#875000
1!
1;
1K
0A
0B
1L
14
03
0%
1&
1?
#880000
0!
0;
#885000
1!
1;
1A
1B
13
1F
1%
0J
0C
0?
1G
#890000
0!
0;
#895000
1!
1;
0K
1H
0D
0A
0B
0E
1I
0L
04
16
05
03
0F
0%
0'
1(
0&
1?
#900000
0!
0;
#905000
1!
1;
1A
1B
13
1%
0G
0?
#910000
0!
0;
#915000
1"
1!
1M
1;
1O
0H
0A
0B
0I
1P
17
06
03
0%
0(
1)
0U
0N
1?
#920000
0!
0;
#925000
1!
1;
1A
1B
13
1%
1J
0?
#930000
0!
0;
#935000
1!
1;
1K
0A
0B
1L
14
03
0%
1&
1?
#940000
0!
0;
#945000
1!
1;
1A
1B
13
1%
0J
1C
0?
#950000
0!
0;
#955000
1!
1;
0K
1D
0A
0B
1E
0L
04
15
03
0%
1'
0&
1?
#960000
0!
0;
#965000
0"
1!
0M
1;
1A
1B
13
1%
1J
0?
#970000
0!
0;
#975000
1!
1;
1K
0A
0B
1L
14
03
0%
1&
1?
#980000
0!
0;
#985000
1!
1;
1A
1B
13
1F
1%
0J
0C
0?
1G
#990000
0!
0;
#995000
1!
1;
0K
1H
0D
0A
0B
0E
1I
0L
04
16
05
03
0F
0%
0'
1(
0&
1?
